^C:\USERS\ADMIN\SOURCE\REPOS\HOMEWORK13\DEBUG\HOMEWORK13.OBJ
C:\USERS\ADMIN\SOURCE\REPOS\HOMEWORK13\DEBUG\HOMEWORK13.ILK
C:\USERS\ADMIN\SOURCE\REPOS\HOMEWORK13\DEBUG\HOMEWORK13.EXE
C:\USERS\ADMIN\SOURCE\REPOS\HOMEWORK13\DEBUG\HOMEWORK13.PDB
